…
# we need to have an input data that is a data.frame with columns
#  as in 'my_filters'
data_in <- diff_methyl_signif %>%
    mutate(End = Start + 1) %>%
    dplyr::select(
      chromosome_name = Chromosome,
      start = Start,
      end = End,
      strand = Strand
    )
data_in
```

    ## # A tibble: 4,492 × 4
    ##    chromosome_name   start     end strand
    ##    <chr>             <dbl>   <dbl> <chr> 
    ##  1 chr1             568475  568476 -     
    ##  2 chr1             896310  896311 -     
    ##  3 chr1             995013  995014 -     
    ##  4 chr1            1020738 1020739 +     
    ##  5 chr1            1051364 1051365 +     
    ##  6 chr1            1334803 1334804 +     
    ##  7 chr1            1543828 1543829 -     
    ##  8 chr1            1710208 1710209 +     
    ##  9 chr1            1822399 1822400 +     
    ## 10 chr1            2126425 2126426 -     
    ## # … with 4,482 more rows
…
    ## Rows: 759 Columns: 7
    ## ── Column specification ────────────────────────────────────────────────────────
    ## Delimiter: "\t"
    ## chr (4): Gene_ID, Protein_ID, Gene_name, Gene_descr
    ## dbl (3): Chr, Start, End
    ## 
    ## ℹ Use `spec()` to retrieve the full column specification for this data.
    ## ℹ Specify the column types or set `show_col_types = FALSE` to quiet this message.

``` r
genes_near_signif_cpgs
```

    ## # A tibble: 759 × 7
    ##    Gene_ID         Protein_ID        Chr    Start      End Gene_name  Gene_descr
    ##    <chr>           <chr>           <dbl>    <dbl>    <dbl> <chr>      <chr>     
    ##  1 ENSG00000120949 ENSP00000263932     1 12063303 12144207 TNFRSF8    TNF recep…
    ##  2 ENSG00000120949 ENSP00000390650     1 12063303 12144207 TNFRSF8    TNF recep…
    ##  3 ENSG00000120949 ENSP00000421938     1 12063303 12144207 TNFRSF8    TNF recep…
    ##  4 ENSG00000120949 ENSP00000398337     1 12063303 12144207 TNFRSF8    TNF recep…
    ##  5 ENSG00000120949 <NA>                1 12063303 12144207 TNFRSF8    TNF recep…
    ##  6 ENSG00000261025 <NA>                1 24968423 24970865 AL445471.1 novel tra…
    ##  7 ENSG00000084070 ENSP00000389895     1 40344850 40423326 SMAP2      small Arf…
    ##  8 ENSG00000084070 ENSP00000361803     1 40344850 40423326 SMAP2      small Arf…
    ##  9 ENSG00000084070 ENSP00000361793     1 40344850 40423326 SMAP2      small Arf…
    ## 10 ENSG00000084070 ENSP00000479285     1 40344850 40423326 SMAP2      small Arf…
    ## # … with 749 more rows
…
data_in <- diff_methyl_signif %>%
    mutate(End = Start + 1) %>%
    dplyr::select(
      chromosome_name = Chromosome,
      start = Start,
      end = End
    )
data_in
```

    ## # A tibble: 4,492 × 3
    ##    chromosome_name   start     end
    ##    <chr>             <dbl>   <dbl>
    ##  1 chr1             568475  568476
    ##  2 chr1             896310  896311
    ##  3 chr1             995013  995014
    ##  4 chr1            1020738 1020739
    ##  5 chr1            1051364 1051365
    ##  6 chr1            1334803 1334804
    ##  7 chr1            1543828 1543829
    ##  8 chr1            1710208 1710209
    ##  9 chr1            1822399 1822400
    ## 10 chr1            2126425 2126426
    ## # … with 4,482 more rows
…
    ## Rows: 66 Columns: 6
    ## ── Column specification ────────────────────────────────────────────────────────
    ## Delimiter: "\t"
    ## chr (3): feat_type, reg_ID, SO_term
    ## dbl (3): chr, start, end
    ## 
    ## ℹ Use `spec()` to retrieve the full column specification for this data.
    ## ℹ Specify the column types or set `show_col_types = FALSE` to quiet this message.

``` r
regulatory_near_signif_cpgs
```

    ## # A tibble: 66 × 6
    ##      chr     start       end feat_type                reg_ID          SO_term   
    ##    <dbl>     <dbl>     <dbl> <chr>                    <chr>           <chr>     
    ##  1     1   2158602   2161400 Promoter Flanking Region ENSR00000344819 SO:0001952
    ##  2     1 232764855 232769000 Promoter Flanking Region ENSR00000390326 SO:0001952
    ##  3     1  24969401  24969600 CTCF Binding Site        ENSR00000351034 SO:0001974
    ##  4     1  12079201  12080600 CTCF Binding Site        ENSR00000250247 SO:0001974
    ##  5     1  12078600  12079601 Promoter                 ENSR00000919835 SO:0000167
    ##  6    10  45450002  45455400 Promoter Flanking Region ENSR00000402406 SO:0001952
    ##  7    11  96122001  96126199 Promoter Flanking Region ENSR00000439752 SO:0001952
    ##  8    11  67164802  67171799 Promoter Flanking Region ENSR00000433249 SO:0001952
    ##  9    11   1410402   1411800 Promoter Flanking Region ENSR00000952322 SO:0001952
    ## 10    11    840800    846401 Promoter                 ENSR00000035700 SO:0000167
    ## # … with 56 more rows
…
